<!-- Generated by IcoMoon.io -->
<svg version="1.1" xmlns="http://www.w3.org/2000/svg" width="1024" height="1024" viewBox="0 0 1024 1024">
<title></title>
<g id="icomoon-ignore">
</g>
<path d="M85.76 313.173c-0.597-31.573 4.437-62.293 14.507-92.16 8.533-25.173 21.333-47.531 38.912-67.413 25.259-28.757 55.808-48.299 91.819-58.197 17.749-4.949 35.84-8.107 54.101-11.093 14.507-2.219 25.6 5.291 32.427 17.493 16.213 29.013 31.232 58.453 46.933 87.637 11.093 21.077 22.784 41.813 34.133 62.976 8.704 16.469 17.067 33.28 25.6 49.664 4.267 7.68 8.533 15.36 12.629 23.211 11.093 20.48 6.827 34.56-7.68 49.493-20.48 21.589-41.301 42.837-62.037 64.171-9.387 9.899-18.773 19.883-28.587 29.525-10.923 11.093-13.141 27.563-5.12 41.216 16.213 27.819 34.304 54.613 54.869 79.36 12.8 15.104 25.259 30.549 38.827 44.8 26.112 27.307 53.419 52.907 83.968 75.093 15.531 11.093 31.317 22.187 47.104 33.109 11.947 8.192 27.733 6.827 37.973-3.584l58.88-60.075c13.995-14.080 27.904-28.16 42.411-41.472 11.093-10.24 23.552-10.581 36.437-3.413 45.227 25.6 90.453 50.859 135.851 76.288 25.6 14.251 50.944 29.013 76.629 42.923 10.667 5.973 20.053 12.8 23.552 25.173 1.707 5.717 2.133 12.203 1.536 18.091-2.133 19.285-5.376 38.4-11.605 56.832-7.339 21.504-17.067 41.472-30.123 59.904-16.469 23.296-36.693 42.24-61.269 55.467-15.36 8.533-32.171 14.848-48.981 19.968-26.453 7.936-54.016 10.24-81.579 9.131-26.453-1.195-53.077-3.413-79.019-10.752-5.973-1.707-12.373-2.389-18.432-4.267-3.755-1.195-7.083-3.925-10.837-5.461-5.973-2.56-11.947-4.864-18.176-6.997-6.827-2.389-13.824-4.608-20.736-6.827-11.605-3.755-23.381-7.168-34.987-11.435-7.68-2.901-15.104-7.083-22.699-10.752-3.669-1.707-7.424-3.413-10.923-5.717-10.496-6.827-20.736-13.909-31.232-20.651-15.616-9.984-30.72-21.333-47.275-29.184-27.051-12.971-48.896-32.853-71.083-52.309-22.784-19.883-45.397-40.107-66.731-61.781-19.627-20.053-38.741-41.301-56.491-63.403-18.091-22.528-35.157-46.080-50.859-70.4-17.067-26.453-32.939-53.931-47.957-81.749-9.899-18.347-18.176-37.803-25.771-57.344-8.363-21.504-15.957-43.52-22.357-65.707-4.864-16.469-8.277-33.536-10.667-50.603-3.157-22.784-4.779-45.739-7.083-68.608h1.536z"></path>
</svg>
