{
    "company": {
        "name": "Smart Bazar",
        "phone": {
            "number": "8 800 550-14-44",
            "link": "tel:+78005501444"
        },
        "email": "hello@smart-bazar.ru",
        "social": [
            {
                "icon": "facebook-2",
                "title": "Facebook"
            },
            {
                "icon": "vkontakte-2",
                "title": "Vkontakte"
            },
            {
                "image": "instagram",
                "title": "Instagram"
            },
            {
                "icon": "youtube",
                "title": "Youtube"
            }
        ],
        "share": [
            {
                "icon": "ok",
                "title": "Одноклассники"
            },
            {
                "icon": "facebook",
                "title": "Facebook"
            },
            {
                "icon": "vkontakte",
                "title": "Vkontakte"
            },
            {
                "icon": "whatsapp",
                "title": "WhatsApp"
            },
            {
                "image": "telegram",
                "title": "Telegram"
            },
            {
                "icon": "skype",
                "title": "Skype"
            },
            {
                "icon": "viber",
                "title": "Viber"
            },
            {
                "icon": "twitter",
                "title": "Twitter"
            }
        ],
        "copyright": "© Smart Bazar, 2021&nbsp;г. <br>Все права защищены."
    },
    "mobileNav": [
        {
            "id": "catalog",
            "name": "Каталог",
            "element": "mobile-menu-trigger",
            "src": "mobile-menu"
        },
        {
            "id": "home",
            "icon": "home",
            "name": "Покупателю",
            "element": "mobile-menu-trigger",
            "src": "mobile-customer-menu"
        },
        {
            "icon": "basket",
            "name": "Корзина",
            "badge": 8,
            "link": "cart.html"
        },
        {
            "id": "search",
            "icon": "search",
            "name": "Поиск",
            "element": "mobile-menu-trigger",
            "src": "mobile-search"
        },
        {
            "id": "phone",
            "icon": "phone",
            "name": "Связаться",
            "element": "mobile-menu-trigger",
            "src": "mobile-contacts-menu"
        }
    ],
    "quickMenu": [
        {
            "icon": "controls",
            "name": "Сравнение",
            "link": "compare.html",
            "badge": 8
        },
        {
            "icon": "fav",
            "name": "Избранное",
            "link": "favorites.html",
            "badge": 22
        },
        {
            "icon": "basket",
            "name": "Корзина",
            "link": "cart.html",
            "badge": 8,
            "class": "hidden-lg-down"
        }
    ],
    "nav": {
        "main": [
            {
                "name": "Смартфоны",
                "link": "catalog.html",
                "theme": "primary",
                "type": "lg",
                "image": 1,
                "imageClass": "vertical",
                "colClass": "col-md-6"
            },
            {
                "name": "Планшеты",
                "link": "catalog.html",
                "theme": "base",
                "type": "lg",
                "image": 2,
                "colClass": "col-md-6"
            },
            {
                "name": "Ноутбуки",
                "link": "catalog.html",
                "theme": "light",
                "type": "md",
                "image": 3,
                "colClass": "col-md-stretch"
            },
            {
                "name": "Смарт-часы",
                "link": "catalog.html",
                "theme": "light",
                "type": "md",
                "image": 4,
                "colClass": "col-md-stretch"
            },
            {
                "name": "Аксессуары",
                "link": "catalog.html",
                "theme": "light",
                "type": "md",
                "image": 5,
                "colClass": "col-md-stretch"
            },
            {
                "name": "Для игровых приставок",
                "link": "catalog.html",
                "theme": "light",
                "type": "md",
                "image": 6,
                "colClass": "col-md-stretch",
                "footer": false,
                "nav": false
            },
            {
                "name": "Трейд-ин",
                "icon": "repeat",
                "class": "right",
                "link": "trade-in.html",
                "footer": false
            }
        ],
        "level2": [
            {
                "name": "Apple",
                "level3": [
                    "iPhone 12 Pro Max",
                    "iPhone 12 Pro",
                    "iPhone 12",
                    "iPhone 12 mini",
                    "iPhone 11 Pro",
                    "iPhone 11",
                    "iPhone SE 2020",
                    "iPhone XR"
                ]
            },
            {
                "name": "SAMSUNG",
                "all": true,
                "level3": [
                    "Galaxy Z Fold2",
                    "Galaxy Z Flip",
                    "Galaxy S21",
                    "Galaxy S20",
                    "Galaxy Note20",
                    "Galaxy Note10 Lite",
                    "Galaxy M31"
                ]
            },
            {
                "level3": [
                    "HONOR",
                    "NOKIA",
                    "FLY",
                    "ZTE",
                    "XIAOMI",
                    "LENOVO",
                    "DIGMA"
                ]
            },
            {
                "level3": [
                    "MEIZU",
                    "VERTEX",
                    "ITEL",
                    "BQ",
                    "PHILIPS",
                    "PRESTIGIO",
                    "ALCATEL",
                    "HUAWEI",
                    "INOI"
                ]
            },
            {
                "level3": [
                    "TP-LINK",
                    "TEXET",
                    "HAIER",
                    "F+",
                    "VSMART",
                    "IRBIS",
                    "MOTOROLA",
                    "HTC",
                    "HISENSE"
                ]
            },
            {
                "level3": [
                    "OPPO",
                    "REALME",
                    "JINGA",
                    "PANASONIC",
                    "VIVO",
                    "WIGOR",
                    "OUKITEL",
                    "NUBIA",
                    "HIGHSCREEN"
                ]
            },
            {
                "level3": [
                    "RUGGEAR",
                    "GINZZU",
                    "ITEL",
                    "LEXAND",
                    "THURAYA",
                    "THURAYA"
                ]
            }
        ],
        "quick": [
            "Смартфоны на Android",
            "Смартфоны на IOS",
            "Новинки и флагманы",
            "Кнопочные телефоны",
            "Чехлы для телефонов",
            "Зарядные устройства",
            "Защитные стекла и пленки",
            "Карты памяти"
        ],
        "customer": [
            {
                "name": "О проекте",
                "link": "about.html"
            },
            {
                "name": "Трейд-ин",
                "link": "trade-in.html"
            },
            {
                "name": "Получение и оплата",
                "link": "info-delivery.html"
            },
            {
                "name": "Рассрочка",
                "link": "info-credit.html"
            },
            {
                "name": "Гарантия и сервис",
                "link": "info-service.html"
            },
            {
                "name": "Система лояльности",
                "link": "info-loyalty.html"
            },
            {
                "name": "Центр поддержки",
                "link": "support.html"
            }
        ],
        "customerFooter": [
            {
                "name": "О проекте",
                "link": "about.html"
            },
            {
                "name": "Получение и оплата",
                "link": "info-delivery.html"
            },
            {
                "name": "Рассрочка",
                "link": "info-credit.html"
            },
            {
                "name": "Гарантия и сервис",
                "link": "info-service.html"
            },
            {
                "name": "Трейд-ин",
                "link": "trade-in.html"
            },
            {
                "name": "Система лояльности",
                "link": "info-loyalty.html"
            },
            {
                "name": "Центр поддержки",
                "link": "support.html"
            },
            {
                "name": "Условия продажи"
            },
            {
                "name": "Политика конфиденциальности",
                "link": "info-privacy-policy.html"
            }
        ]
    },
    "location": {
        "cities": [
            "Москва",
            "Санкт-Петербург",
            "Брянск",
            "Великий Новгород",
            "Воронеж",
            "Екатеринбург",
            "Ижевск",
            "Казань",
            "Краснодар",
            "Красноярск",
            "Мытищи",
            "Нефтекамск",
            "Нижний Новгород",
            "Новосибирск",
            "Орел",
            "Оренбург",
            "Пенза",
            "Пермь",
            "Ростов-на-Дону",
            "Рязань",
            "Самара",
            "Саранск",
            "Саратов",
            "Тюмень",
            "Уфа",
            "Хабаровск",
            "Чебоксары",
            "Челябинск"
        ],
        "results": [
            "<b>Киро</b>в, Калужская обл., <b>Киро</b>вский р-н",
            "<b>Киро</b>в, <b>Киро</b>вская обл.",
            "<b>Киро</b>во-Чепецк, <b>Киро</b>вская обл.",
            "<b>Киро</b>вск, Ленинградская область, <b>Киро</b>вский р-н",
            "<b>Киро</b>воград, Свердловкая обл."
        ]
    },
    "contacts": [
        {
            "text": "Позвонить по <b>8 800 550-14-44</b>",
            "note": "(круглосуточно)"
        },
        {
            "text": "Написать онлайн-консультанту",
            "note": "(готовы вам ответить прямо сейчас)"
        },
        {
            "text": "Пообщаться с видео-консультантом",
            "note": "(10:00—22:00 МСК)"
        }
    ],
    "heroSteps": [
        "Выберите нужный гаджет из&nbsp;600+ моделей в&nbsp;каталоге",
        "Закажите доставку или получение в&nbsp;ближайшем «Связном»",
        "Оплатите удобным способом",
        "Пользуйтесь гаджетом с&nbsp;удовольствием, а&nbsp;мы останемся на&nbsp;связи"
    ],
    "features": [
        {
            "icon": "truck",
            "iconWidth": 56,
            "iconHeight": 33,
            "title": "Доставка по РФ, получение в «Связном»"
        },
        {
            "icon": "wallet",
            "iconWidth": 46,
            "iconHeight": 46,
            "title": "Оплата картой или наличными при получении"
        },
        {
            "icon": "document",
            "iconWidth": 48,
            "iconHeight": 48,
            "title": "Рассрочка на 10 месяцев без первого взноса"
        },
        {
            "icon": "phone",
            "iconWidth": 30,
            "iconHeight": 50,
            "title": "Проверьте гаджет, прежде чем оплатить"
        },
        {
            "icon": "security-2",
            "iconWidth": 33,
            "iconHeight": 42,
            "title": "Гарантия до 180 дней и&nbsp;поддержка 24/7"
        }
    ],
    "promos": [
        {
            "title": "<span class=\"promo-card__title-highlight text-primary\">Скидка 30%</span> на аксессуары Samsung",
            "text": "При покупке двух предметов до&nbsp;31&nbsp;марта и&nbsp;оплате онлайн"
        },
        {
            "title": "10 месяцев рассрочки от&nbsp;Тинькофф",
            "text": "0% первый взнос <br>0%&nbsp;переплаты"
        }
    ],
    "benefits": [
        {
            "icon": "chat-shadow",
            "text": "Поможем с выбором гаджета и оформлением заказа"
        },
        {
            "icon": "document-shadow",
            "text": "Предоставляем рассрочку с выгодными условиями"
        },
        {
            "icon": "security-shadow",
            "text": "Даем гарантию до 180 дней: замена, ремонт или возврат"
        },
        {
            "icon": "24-hours",
            "text": "Остаёмся на связи: поддержка 24/7 по номеру <b><a href=\"tel:+78005501444\" class=\"link-hidden\">8-800-550-14-44</a></b>"
        },
        {
            "icon": "24-hours",
            "text": "Остаёмся на связи: поддержка 24/7 по номеру <b><a href=\"tel:+78005501444\" class=\"link-hidden\">8-800-550-14-44</a></b>"
        },
        {
            "icon": "chat-shadow",
            "text": "Оповещаем о поступлении интересных вам моделей и новинок"
        }
    ],
    "benefitsExtended": [
        {
            "icon": "chat-shadow",
            "title": "Поможем с выбором гаджета и оформлением заказа",
            "text": "С вами работают профессиональные консультанты, которые знают о смартфонах всё. Они помогут сравнить характеристики, опишут возможности и расскажут, как оплатить и получить покупку, помогут оформить заказ. Вы можете получить консультацию в удобном формате: в чате или по видеосвязи на сайте либо в WhatsApp."
        },
        {
            "icon": "bell-shadow",
            "title": "Оповещаем о поступлении интересных вам моделей и новинок",
            "text": "Если вы хотите конкретный смартфон, но у нас его пока нет, оставьте свои контакты, и мы пришлем уведомление о поступлении в продажу. Также вы можете узнавать о новинках и спецпредложениях, подписавшись в соцсетях или на информационную рассылку."
        },
        {
            "icon": "phone",
            "title": "Даем возможность возврата без объяснения причин в течение 21 дня",
            "text": "Если гаджет просто не понравился, принесите его в ближайший «Связной» и заполните заявку на возврат. Мы вернём деньги в течение нескольких дней после того, как убедимся в его исправности."
        },
        {
            "icon": "chat-shadow",
            "title": "Поможем с выбором гаджета и оформлением заказа",
            "text": "С вами работают профессиональные консультанты, которые знают о смартфонах всё. Они помогут сравнить характеристики, опишут возможности и расскажут, как оплатить и получить покупку, помогут оформить заказ. Вы можете получить консультацию в удобном формате: в чате или по видеосвязи на сайте либо в WhatsApp."
        },
        {
            "icon": "bell-shadow",
            "title": "Оповещаем о поступлении интересных вам моделей и новинок",
            "text": "Если вы хотите конкретный смартфон, но у нас его пока нет, оставьте свои контакты, и мы пришлем уведомление о поступлении в продажу. Также вы можете узнавать о новинках и спецпредложениях, подписавшись в соцсетях или на информационную рассылку."
        },
        {
            "icon": "phone",
            "title": "Даем возможность возврата без объяснения причин в течение 21 дня",
            "text": "Если гаджет просто не понравился, принесите его в ближайший «Связной» и заполните заявку на возврат. Мы вернём деньги в течение нескольких дней после того, как убедимся в его исправности."
        }
    ],
    "benefitsHero": [
        {
            "col": "col-md-7",
            "icon": "phone-diagnostics-shadow",
            "title": "Мы выкупаем гаджеты по trade‑in.",
            "text": "Каждый гаджет проходит несколько проверок, диагностику, сброс настроек и удаление персональных данных, необходимый ремонт и чистку. Часть устройств — абсолютно новые витринные образцы."
        },
        {
            "col": "col-md-5",
            "icon": "sales-shadow",
            "title": "Такие устройства дешевле новых от&nbsp;20&nbsp;до&nbsp;60%.",
            "text": "С их помощью вы решаете все те же самые задачи, а платите меньше."
        }
    ],
    "categories": {
        "tags": [
            "<span class=\"tag__icon\">👦</span>Смартфон для школьника",
            "<span class=\"tag__icon\">📷</span>Смартфон с хорошей камерой",
            "<span class=\"tag__icon\">💻</span>Ноутбук для дизайнера",
            "<span class=\"tag__icon\">👵🏻</span>Ноутбук для бабушки",
            "<span class=\"tag__icon\">📚</span>Ноутбук для обучения",
            "<span class=\"tag__icon\">🎮</span>Ноутбук для геймера",
            "<span class=\"tag__icon\">❤️</span>Смарт-часы с измерением давления и пульса",
            "<span class=\"tag__icon\">🔋</span>Ноутбук"
        ],
        "brands": [
            "Samsung",
            "Apple",
            "Oppo",
            "Meizu",
            "Alcatel"
        ]
    },
    "catalog": {
        "filters": [
            {
                "title": "Цена, ₽",
                "type": "input-range",
                "from": "от 410 990 ₽",
                "to": "до 99 999 ₽"
            },
            {
                "title": "Особенности",
                "hideLink": true,
                "tooltip": true,
                "list": [
                    {
                        "name": "Для школьника",
                        "number": 32,
                        "emoji": "👦"
                    },
                    {
                        "name": "Для работы",
                        "number": 14,
                        "emoji": "💻"
                    },
                    {
                        "name": "Для бабушки",
                        "number": 4,
                        "emoji": "👵🏻"
                    },
                    {
                        "name": "Для блоггера",
                        "number": 76,
                        "emoji": "🔋"
                    },
                    {
                        "name": "Для мамы",
                        "number": 230,
                        "emoji": "💻"
                    },
                    {
                        "name": "С хорошей камерой",
                        "number": 232,
                        "emoji": "📷"
                    },
                    {
                        "name": "С мощным аккумулятором",
                        "number": 32,
                        "emoji": "🔋"
                    },
                    {
                        "name": "На iOS",
                        "number": 43,
                        "emoji": "🔋"
                    },
                    {
                        "name": "На Android",
                        "number": 432,
                        "emoji": "🔋"
                    }
                ]
            },
            {
                "title": "Производитель",
                "showLink": true,
                "list": [
                    {
                        "name": "Samsung",
                        "number": 32
                    },
                    {
                        "name": "Apple",
                        "number": 14
                    },
                    {
                        "name": "Huawei",
                        "number": 4
                    },
                    {
                        "name": "Honor",
                        "number": 76
                    },
                    {
                        "name": "Xiaomi",
                        "number": 230
                    }
                ]
            },
            {
                "title": "Состояние",
                "list": [
                    {
                        "name": "Хороший",
                        "number": 32
                    },
                    {
                        "name": "Отличный",
                        "number": 14
                    },
                    {
                        "name": "Как новый",
                        "number": 4
                    }
                ]
            },
            {
                "title": "Наличие и доставка",
                "list": [
                    {
                        "name": "Доставка курьером",
                        "number": 32
                    },
                    {
                        "name": "Самовывоз",
                        "number": 14
                    },
                    {
                        "name": "Забрать сегодня",
                        "number": 4
                    },
                    {
                        "name": "Ожидаем поступления",
                        "number": 4
                    }
                ]
            },
            {
                "title": "Встроенная память",
                "list": [
                    {
                        "name": "16 Гб",
                        "number": 32
                    },
                    {
                        "name": "32 Гб",
                        "number": 14
                    },
                    {
                        "name": "128 Гб",
                        "number": 4
                    },
                    {
                        "name": "64 Гб",
                        "number": 4
                    },
                    {
                        "name": "256 Гб",
                        "number": 4
                    }
                ]
            },
            {
                "title": "Оперативная память",
                "collapsed": true,
                "list": [
                    {
                        "name": "16 Гб",
                        "number": 32
                    },
                    {
                        "name": "32 Гб",
                        "number": 14
                    },
                    {
                        "name": "128 Гб",
                        "number": 4
                    },
                    {
                        "name": "64 Гб",
                        "number": 4
                    },
                    {
                        "name": "256 Гб",
                        "number": 4
                    }
                ]
            },
            {
                "title": "Размер экрана",
                "collapsed": true,
                "list": [
                    {
                        "name": "16 Гб",
                        "number": 32
                    },
                    {
                        "name": "32 Гб",
                        "number": 14
                    },
                    {
                        "name": "128 Гб",
                        "number": 4
                    },
                    {
                        "name": "64 Гб",
                        "number": 4
                    },
                    {
                        "name": "256 Гб",
                        "number": 4
                    }
                ]
            },
            {
                "title": "Год выпуска",
                "collapsed": true,
                "list": [
                    {
                        "name": "2020",
                        "number": 32
                    },
                    {
                        "name": "2019",
                        "number": 14
                    },
                    {
                        "name": "2018",
                        "number": 4
                    },
                    {
                        "name": "2017",
                        "number": 4
                    },
                    {
                        "name": "2016",
                        "number": 4
                    }
                ]
            },
            {
                "title": "Цвет корпуса",
                "collapsed": true,
                "list": [
                    {
                        "name": "Черный",
                        "number": 32
                    },
                    {
                        "name": "Серый",
                        "number": 14
                    },
                    {
                        "name": "Белый",
                        "number": 4
                    },
                    {
                        "name": "Красный",
                        "number": 4
                    },
                    {
                        "name": "Зеленый",
                        "number": 4
                    }
                ]
            },
            {
                "title": "Количество SIM-карт",
                "collapsed": true,
                "list": [
                    {
                        "name": 1,
                        "number": 32
                    },
                    {
                        "name": 2,
                        "number": 14
                    }
                ]
            }
        ],
        "sorting": [
            "Сначала дешевые",
            "Сначала дорогие",
            "По популярности",
            "По новизне",
            "По состоянию",
            "По выгоде"
        ],
        "items": [
            {
                "id": 1,
                "image": 1,
                "title": "Смартфон Xiaomi Redmi 9C 3/64Gb NFC Sunrise Orange",
                "shop": "Технолаб",
                "rating": 4,
                "reviews": "5 отзывов",
                "stickers": [
                    {
                        "label": "Выгодно",
                        "class": "bargain"
                    },
                    {
                        "label": "Новинка",
                        "class": "new"
                    }
                ],
                "condition": "Как новый",
                "tags": [
                    "Гарантия <b>180 дней</b>",
                    "Рассрочка",
                    "Оригинальный гаджет",
                    "Трейд-ин",
                    "Продиагностирован по 55 параметрам"
                ],
                "marketPrice": "74 990",
                "minSave": "5 000",
                "price": "9 999",
                "bonus": 2236
            },
            {
                "id": 2,
                "image": 2,
                "title": "Смартфон Xiaomi Redmi 9C 3/64Gb NFC Sunrise Orange",
                "shop": "Ситилинк",
                "rating": 4,
                "reviews": "5 отзывов",
                "stickers": [
                    {
                        "label": "Выгодно",
                        "class": "bargain"
                    },
                    {
                        "label": "Новинка",
                        "class": "new"
                    }
                ],
                "condition": "Как новый",
                "tags": [
                    "Гарантия <b>180 дней</b>",
                    "Рассрочка",
                    "Оригинальный гаджет",
                    "Трейд-ин",
                    "Продиагностирован по 55 параметрам"
                ],
                "marketPrice": "23 990",
                "minSave": "5 000",
                "price": "15 200",
                "bonus": 2236
            },
            {
                "id": 3,
                "image": 3,
                "title": "Смартфон Xiaomi Redmi 9C 3/64Gb NFC Sunrise Orange",
                "shop": "МТС",
                "rating": 4,
                "reviews": "5 отзывов",
                "stickers": [
                    {
                        "label": "Выгодно",
                        "class": "bargain"
                    },
                    {
                        "label": "Бестселлер",
                        "class": "bestseller"
                    }
                ],
                "condition": "Как новый",
                "tags": [
                    "Гарантия <b>180 дней</b>",
                    "Рассрочка",
                    "Оригинальный гаджет",
                    "Трейд-ин",
                    "Продиагностирован по 55 параметрам"
                ],
                "marketPrice": "24 990",
                "minSave": "5 000",
                "price": "60 550",
                "bonus": 2236
            },
            {
                "id": 4,
                "image": 4,
                "title": "Смартфон Samsung A217 Galaxy A21s 3/32Gb Black",
                "shop": "Технолаб",
                "rating": 4,
                "reviews": "5 отзывов",
                "stickers": [
                    {
                        "label": "Бестселлер",
                        "class": "bestseller"
                    }
                ],
                "condition": "Как новый",
                "tags": [
                    "Гарантия <b>180 дней</b>",
                    "Рассрочка",
                    "Трейд-ин"
                ],
                "marketPrice": "74 990",
                "minSave": "15 000",
                "price": "22 990",
                "bonus": 2236
            },
            {
                "id": 5,
                "image": 1,
                "title": "Смартфон Xiaomi Redmi 9C 3/64Gb NFC Sunrise Orange",
                "shop": "Технолаб",
                "rating": 4,
                "reviews": "5 отзывов",
                "stickers": [
                    {
                        "label": "Выгодно",
                        "class": "bargain"
                    },
                    {
                        "label": "Новинка",
                        "class": "new"
                    }
                ],
                "condition": "Как новый",
                "tags": [
                    "Гарантия <b>180 дней</b>",
                    "Рассрочка",
                    "Оригинальный гаджет",
                    "Трейд-ин",
                    "Продиагностирован по 55 параметрам"
                ],
                "marketPrice": "74 990",
                "minSave": "5 000",
                "price": "9 999",
                "bonus": 2236
            },
            {
                "id": 6,
                "image": 2,
                "title": "Смартфон Xiaomi Redmi 9C 3/64Gb NFC Sunrise Orange",
                "shop": "Технолаб",
                "rating": 4,
                "reviews": "5 отзывов",
                "stickers": [
                    {
                        "label": "Выгодно",
                        "class": "bargain"
                    },
                    {
                        "label": "Новинка",
                        "class": "new"
                    }
                ],
                "condition": "Как новый",
                "tags": [
                    "Гарантия <b>180 дней</b>",
                    "Рассрочка",
                    "Оригинальный гаджет",
                    "Трейд-ин",
                    "Продиагностирован по 55 параметрам"
                ],
                "marketPrice": "23 990",
                "minSave": "5 000",
                "price": "15 200",
                "bonus": 2236
            },
            {
                "id": 7,
                "image": 3,
                "title": "Смартфон Xiaomi Redmi 9C 3/64Gb NFC Sunrise Orange",
                "shop": "Технолаб",
                "rating": 4,
                "reviews": "5 отзывов",
                "stickers": [
                    {
                        "label": "Выгодно",
                        "class": "bargain"
                    },
                    {
                        "label": "Бестселлер",
                        "class": "bestseller"
                    }
                ],
                "condition": "Как новый",
                "tags": [
                    "Гарантия <b>180 дней</b>",
                    "Рассрочка",
                    "Оригинальный гаджет",
                    "Трейд-ин",
                    "Продиагностирован по 55 параметрам"
                ],
                "marketPrice": "24 990",
                "minSave": "5 000",
                "price": "60 550",
                "bonus": 2236
            },
            {
                "id": 8,
                "image": 4,
                "title": "Смартфон Samsung A217 Galaxy A21s 3/32Gb Black",
                "rating": 4,
                "reviews": "5 отзывов",
                "stickers": [
                    {
                        "label": "Бестселлер",
                        "class": "bestseller"
                    }
                ],
                "condition": "Как новый",
                "tags": [
                    "Гарантия <b>180 дней</b>",
                    "Рассрочка",
                    "Оригинальный гаджет",
                    "Трейд-ин",
                    "Продиагностирован по 55 параметрам"
                ],
                "marketPrice": "74 990",
                "minSave": "15 000",
                "price": "22 990",
                "bonus": 2236
            },
            {
                "id": 9,
                "image": 1,
                "title": "Смартфон Xiaomi Redmi 9C 3/64Gb NFC Sunrise Orange",
                "shop": "Технолаб",
                "rating": 4,
                "reviews": "5 отзывов",
                "stickers": [
                    {
                        "label": "Выгодно",
                        "class": "bargain"
                    },
                    {
                        "label": "Новинка",
                        "class": "new"
                    }
                ],
                "condition": "Как новый",
                "tags": [
                    "Гарантия <b>180 дней</b>",
                    "Рассрочка",
                    "Оригинальный гаджет",
                    "Трейд-ин",
                    "Продиагностирован по 55 параметрам"
                ],
                "marketPrice": "74 990",
                "minSave": "5 000",
                "price": "9 999",
                "bonus": 2236
            },
            {
                "id": 10,
                "image": 2,
                "title": "Смартфон Xiaomi Redmi 9C 3/64Gb NFC Sunrise Orange",
                "shop": "Технолаб",
                "rating": 4,
                "reviews": "5 отзывов",
                "stickers": [
                    {
                        "label": "Выгодно",
                        "class": "bargain"
                    },
                    {
                        "label": "Новинка",
                        "class": "new"
                    }
                ],
                "condition": "Как новый",
                "tags": [
                    "Гарантия <b>180 дней</b>",
                    "Рассрочка",
                    "Оригинальный гаджет",
                    "Трейд-ин",
                    "Продиагностирован по 55 параметрам"
                ],
                "marketPrice": "23 990",
                "minSave": "5 000",
                "price": "15 200",
                "bonus": 2236
            },
            {
                "id": 11,
                "image": 3,
                "title": "Смартфон Xiaomi Redmi 9C 3/64Gb NFC Sunrise Orange",
                "shop": "Технолаб",
                "rating": 4,
                "reviews": "5 отзывов",
                "stickers": [
                    {
                        "label": "Выгодно",
                        "class": "bargain"
                    },
                    {
                        "label": "Бестселлер",
                        "class": "bestseller"
                    }
                ],
                "condition": "Как новый",
                "tags": [
                    "Гарантия <b>180 дней</b>",
                    "Рассрочка",
                    "Оригинальный гаджет",
                    "Трейд-ин",
                    "Продиагностирован по 55 параметрам"
                ],
                "marketPrice": "24 990",
                "minSave": "5 000",
                "price": "60 550",
                "bonus": 2236
            },
            {
                "id": 12,
                "image": 4,
                "title": "Смартфон Samsung A217 Galaxy A21s 3/32Gb Black",
                "rating": 4,
                "reviews": "5 отзывов",
                "stickers": [
                    {
                        "label": "Бестселлер",
                        "class": "bestseller"
                    }
                ],
                "condition": "Как новый",
                "tags": [
                    "Гарантия <b>180 дней</b>",
                    "Рассрочка",
                    "Оригинальный гаджет",
                    "Трейд-ин",
                    "Продиагностирован по 55 параметрам"
                ],
                "marketPrice": "74 990",
                "minSave": "15 000",
                "price": "22 990",
                "bonus": 2236
            },
            {
                "id": 13,
                "image": 1,
                "title": "Смартфон Xiaomi Redmi 9C 3/64Gb NFC Sunrise Orange",
                "shop": "Технолаб",
                "rating": 4,
                "reviews": "5 отзывов",
                "stickers": [
                    {
                        "label": "Выгодно",
                        "class": "bargain"
                    },
                    {
                        "label": "Новинка",
                        "class": "new"
                    }
                ],
                "condition": "Как новый",
                "tags": [
                    "Гарантия <b>180 дней</b>",
                    "Рассрочка",
                    "Оригинальный гаджет",
                    "Трейд-ин",
                    "Продиагностирован по 55 параметрам"
                ],
                "marketPrice": "74 990",
                "minSave": "5 000",
                "price": "9 999",
                "bonus": 2236
            },
            {
                "id": 14,
                "image": 2,
                "title": "Смартфон Xiaomi Redmi 9C 3/64Gb NFC Sunrise Orange",
                "shop": "Технолаб",
                "rating": 4,
                "reviews": "5 отзывов",
                "stickers": [
                    {
                        "label": "Выгодно",
                        "class": "bargain"
                    },
                    {
                        "label": "Новинка",
                        "class": "new"
                    },
                    {
                        "label": "Бестселлер",
                        "class": "bestseller"
                    },
                    {
                        "label": "Скоро в продаже",
                        "class": "soon"
                    }
                ],
                "condition": "Как новый",
                "tags": [
                    "Гарантия <b>180 дней</b>",
                    "Рассрочка",
                    "Оригинальный гаджет",
                    "Трейд-ин",
                    "Продиагностирован по 55 параметрам"
                ],
                "marketPrice": "23 990",
                "minSave": "5 000",
                "price": "15 200",
                "bonus": 2236
            },
            {
                "id": 15,
                "image": 3,
                "title": "Смартфон Xiaomi Redmi 9C 3/64Gb NFC Sunrise Orange",
                "shop": "Технолаб",
                "rating": 4,
                "reviews": "5 отзывов",
                "stickers": [
                    {
                        "label": "Выгодно",
                        "class": "bargain"
                    },
                    {
                        "label": "Бестселлер",
                        "class": "bestseller"
                    }
                ],
                "condition": "Как новый",
                "tags": [
                    "Гарантия <b>180 дней</b>",
                    "Рассрочка",
                    "Оригинальный гаджет",
                    "Трейд-ин",
                    "Продиагностирован по 55 параметрам"
                ],
                "marketPrice": "24 990",
                "minSave": "5 000",
                "price": "60 550",
                "bonus": 2236
            }
        ],
        "itemsPhones": [
            {
                "id": 16,
                "size": "lg",
                "theme": "blue",
                "image": "5-lg",
                "title": "Смартфон Xiaomi Redmi 9C 3/64Gb NFC Sunrise Orange",
                "shop": "Технолаб",
                "rating": 4,
                "reviews": "5 отзывов",
                "stickers": [
                    {
                        "label": "Выгодно",
                        "class": "bargain"
                    }
                ],
                "condition": "Как новый",
                "tags": [
                    "Гарантия <b>180 дней</b>",
                    "Рассрочка",
                    "Трейд-ин"
                ],
                "marketPrice": "74 990",
                "minSave": "5 000",
                "price": "60 550",
                "bonus": 2236
            },
            {
                "id": 17,
                "image": 2,
                "title": "Смартфон Xiaomi Redmi 9C 3/64Gb NFC Sunrise Orange",
                "shop": "Технолаб",
                "rating": 4,
                "reviews": "5 отзывов",
                "stickers": [
                    {
                        "label": "Выгодно",
                        "class": "bargain"
                    },
                    {
                        "label": "Новинка",
                        "class": "new"
                    }
                ],
                "condition": "Как новый",
                "tags": [
                    "Гарантия <b>180 дней</b>",
                    "Рассрочка",
                    "Оригинальный гаджет",
                    "Трейд-ин",
                    "Продиагностирован по 55 параметрам"
                ],
                "marketPrice": "23 990",
                "minSave": "5 000",
                "price": "9 999",
                "bonus": 36
            },
            {
                "id": 18,
                "image": 3,
                "title": "Смартфон Xiaomi Redmi 9C 3/64Gb NFC Sunrise Orange",
                "shop": "Технолаб",
                "rating": 4,
                "reviews": "5 отзывов",
                "stickers": [
                    {
                        "label": "Выгодно",
                        "class": "bargain"
                    },
                    {
                        "label": "Бестселлер",
                        "class": "bestseller"
                    }
                ],
                "condition": "Как новый",
                "tags": [
                    "Гарантия <b>180 дней</b>",
                    "Рассрочка",
                    "Оригинальный гаджет",
                    "Трейд-ин",
                    "Продиагностирован по 55 параметрам"
                ],
                "marketPrice": "24 990",
                "minSave": "5 000",
                "price": "60 550",
                "bonus": 2236
            },
            {
                "id": 19,
                "image": 4,
                "title": "Смартфон Samsung A217 Galaxy A21s 3/32Gb Black",
                "rating": 4,
                "reviews": "5 отзывов",
                "stickers": [
                    {
                        "label": "Бестселлер",
                        "class": "bestseller"
                    }
                ],
                "condition": "Как новый",
                "tags": [
                    "Гарантия <b>180 дней</b>",
                    "Рассрочка",
                    "Оригинальный гаджет",
                    "Трейд-ин",
                    "Продиагностирован по 55 параметрам"
                ],
                "marketPrice": "74 990",
                "minSave": "15 000",
                "price": "22 990",
                "bonus": 2236
            },
            {
                "id": 17,
                "image": 2,
                "title": "Смартфон Xiaomi Redmi 9C 3/64Gb NFC Sunrise Orange",
                "shop": "Технолаб",
                "rating": 4,
                "reviews": "5 отзывов",
                "stickers": [
                    {
                        "label": "Выгодно",
                        "class": "bargain"
                    },
                    {
                        "label": "Новинка",
                        "class": "new"
                    }
                ],
                "condition": "Как новый",
                "tags": [
                    "Гарантия <b>180 дней</b>",
                    "Рассрочка",
                    "Оригинальный гаджет",
                    "Трейд-ин",
                    "Продиагностирован по 55 параметрам"
                ],
                "marketPrice": "23 990",
                "minSave": "5 000",
                "price": "9 999",
                "bonus": 36
            },
            {
                "id": 18,
                "image": 3,
                "title": "Смартфон Xiaomi Redmi 9C 3/64Gb NFC Sunrise Orange",
                "shop": "Технолаб",
                "rating": 4,
                "reviews": "5 отзывов",
                "stickers": [
                    {
                        "label": "Выгодно",
                        "class": "bargain"
                    },
                    {
                        "label": "Бестселлер",
                        "class": "bestseller"
                    }
                ],
                "condition": "Как новый",
                "tags": [
                    "Гарантия <b>180 дней</b>",
                    "Рассрочка",
                    "Оригинальный гаджет",
                    "Трейд-ин",
                    "Продиагностирован по 55 параметрам"
                ],
                "marketPrice": "24 990",
                "minSave": "5 000",
                "price": "60 550",
                "bonus": 2236
            },
            {
                "id": 19,
                "image": 4,
                "title": "Смартфон Samsung A217 Galaxy A21s 3/32Gb Black",
                "rating": 4,
                "reviews": "5 отзывов",
                "stickers": [
                    {
                        "label": "Бестселлер",
                        "class": "bestseller"
                    }
                ],
                "condition": "Как новый",
                "tags": [
                    "Гарантия <b>180 дней</b>",
                    "Рассрочка",
                    "Оригинальный гаджет",
                    "Трейд-ин",
                    "Продиагностирован по 55 параметрам"
                ],
                "marketPrice": "74 990",
                "minSave": "15 000",
                "price": "22 990",
                "bonus": 2236
            }
        ],
        "itemsLaptops": [
            {
                "id": 20,
                "size": "lg",
                "theme": "green",
                "image": "6-lg",
                "title": "Смартфон Xiaomi Redmi 9C 3/64Gb NFC Sunrise Orange",
                "shop": "Технолаб",
                "rating": 4,
                "reviews": "5 отзывов",
                "condition": "Как новый",
                "tags": [
                    "Гарантия <b>180 дней</b>",
                    "Рассрочка",
                    "Трейд-ин"
                ],
                "marketPrice": "74 990",
                "minSave": "5 000",
                "price": "60 550",
                "bonus": 2236
            },
            {
                "id": 21,
                "image": 7,
                "title": "Смартфон Xiaomi Redmi 9C 3/64Gb NFC Sunrise Orange",
                "shop": "Технолаб",
                "rating": 4,
                "reviews": "5 отзывов",
                "stickers": [
                    {
                        "label": "Выгодно",
                        "class": "bargain"
                    },
                    {
                        "label": "Новинка",
                        "class": "new"
                    }
                ],
                "condition": "Как новый",
                "tags": [
                    "Гарантия <b>180 дней</b>",
                    "Рассрочка",
                    "Оригинальный гаджет",
                    "Трейд-ин",
                    "Продиагностирован по 55 параметрам"
                ],
                "marketPrice": "23 990",
                "minSave": "5 000",
                "price": "99 999",
                "bonus": 36
            },
            {
                "id": 22,
                "image": 8,
                "title": "Смартфон Xiaomi Redmi 9C 3/64Gb NFC Sunrise Orange",
                "shop": "Технолаб",
                "rating": 4,
                "reviews": "5 отзывов",
                "stickers": [
                    {
                        "label": "Выгодно",
                        "class": "bargain"
                    }
                ],
                "condition": "Как новый",
                "tags": [
                    "Гарантия <b>180 дней</b>",
                    "Рассрочка",
                    "Оригинальный гаджет",
                    "Трейд-ин",
                    "Продиагностирован по 55 параметрам"
                ],
                "marketPrice": "24 990",
                "minSave": "5 000",
                "price": "60 550",
                "bonus": 2236
            },
            {
                "id": 23,
                "image": 9,
                "title": "Смартфон Samsung A217 Galaxy A21s 3/32Gb Black",
                "rating": 4,
                "reviews": "5 отзывов",
                "stickers": [
                    {
                        "label": "Выгодно",
                        "class": "bargain"
                    },
                    {
                        "label": "Бестселлер",
                        "class": "bestseller"
                    }
                ],
                "condition": "Как новый",
                "tags": [
                    "Гарантия <b>180 дней</b>",
                    "Рассрочка",
                    "Оригинальный гаджет",
                    "Трейд-ин",
                    "Продиагностирован по 55 параметрам"
                ],
                "marketPrice": "74 990",
                "minSave": "15 000",
                "price": "22 990",
                "bonus": 2236
            },
            {
                "id": 21,
                "image": 7,
                "title": "Смартфон Xiaomi Redmi 9C 3/64Gb NFC Sunrise Orange",
                "shop": "Технолаб",
                "rating": 4,
                "reviews": "5 отзывов",
                "stickers": [
                    {
                        "label": "Выгодно",
                        "class": "bargain"
                    },
                    {
                        "label": "Новинка",
                        "class": "new"
                    }
                ],
                "condition": "Как новый",
                "tags": [
                    "Гарантия <b>180 дней</b>",
                    "Рассрочка",
                    "Оригинальный гаджет",
                    "Трейд-ин",
                    "Продиагностирован по 55 параметрам"
                ],
                "marketPrice": "23 990",
                "minSave": "5 000",
                "price": "99 999",
                "bonus": 36
            },
            {
                "id": 22,
                "image": 8,
                "title": "Смартфон Xiaomi Redmi 9C 3/64Gb NFC Sunrise Orange",
                "shop": "Технолаб",
                "rating": 4,
                "reviews": "5 отзывов",
                "stickers": [
                    {
                        "label": "Выгодно",
                        "class": "bargain"
                    }
                ],
                "condition": "Как новый",
                "tags": [
                    "Гарантия <b>180 дней</b>",
                    "Рассрочка",
                    "Оригинальный гаджет",
                    "Трейд-ин",
                    "Продиагностирован по 55 параметрам"
                ],
                "marketPrice": "24 990",
                "minSave": "5 000",
                "price": "60 550",
                "bonus": 2236
            },
            {
                "id": 23,
                "image": 9,
                "title": "Смартфон Samsung A217 Galaxy A21s 3/32Gb Black",
                "rating": 4,
                "reviews": "5 отзывов",
                "stickers": [
                    {
                        "label": "Выгодно",
                        "class": "bargain"
                    },
                    {
                        "label": "Бестселлер",
                        "class": "bestseller"
                    }
                ],
                "condition": "Как новый",
                "tags": [
                    "Гарантия <b>180 дней</b>",
                    "Рассрочка",
                    "Оригинальный гаджет",
                    "Трейд-ин",
                    "Продиагностирован по 55 параметрам"
                ],
                "marketPrice": "74 990",
                "minSave": "15 000",
                "price": "22 990",
                "bonus": 2236
            }
        ],
        "itemsAccessories": [
            {
                "id": 24,
                "image": 1,
                "title": "Беспроводные наушники Apple AirPods Pro белый",
                "rating": 4,
                "reviews": "5 отзывов",
                "stickers": [
                    {
                        "label": "Выгодно",
                        "class": "bargain"
                    }
                ],
                "price": "18 550",
                "bonus": 2236
            },
            {
                "id": 25,
                "image": 2,
                "title": "Беспроводные наушники Samsung Galaxy Buds Pro, фиолетовый",
                "rating": 4,
                "reviews": "5 отзывов",
                "stickers": [
                    {
                        "label": "Выгодно",
                        "class": "bargain"
                    },
                    {
                        "label": "Бестселлер",
                        "class": "bestseller"
                    }
                ],
                "price": "12 550",
                "bonus": 36
            },
            {
                "id": 26,
                "image": 3,
                "title": "Беспроводные наушники Samsung Galaxy Buds+, красный (SM-R175NZRASER)",
                "rating": 4,
                "reviews": "5 отзывов",
                "stickers": [
                    {
                        "label": "Выгодно",
                        "class": "bargain"
                    }
                ],
                "price": "9 000",
                "bonus": 2236
            },
            {
                "id": 27,
                "image": 4,
                "title": "Беспроводные наушники Samsung Galaxy Buds Pro, фиолетовый",
                "rating": 4,
                "reviews": "5 отзывов",
                "price": "2 550",
                "bonus": 2236
            },
            {
                "id": 28,
                "image": 1,
                "title": "Беспроводные наушники Apple AirPods Pro белый",
                "rating": 4,
                "reviews": "5 отзывов",
                "stickers": [
                    {
                        "label": "Выгодно",
                        "class": "bargain"
                    }
                ],
                "price": "18 550",
                "bonus": 2236
            }
        ],
        "set": [
            {
                "id": 29,
                "image": 10,
                "title": "Смартфон Apple iPhone 12 Pro 128GB, белый",
                "rating": 4,
                "reviews": "5 отзывов",
                "stickers": [
                    {
                        "label": "Новинка",
                        "class": "new"
                    },
                    {
                        "label": "Выгодно",
                        "class": "bargain"
                    }
                ],
                "condition": "Как новый",
                "tags": [
                    "Гарантия <b>180 дней</b>",
                    "Рассрочка",
                    "Оригинальный гаджет",
                    "Трейд-ин",
                    "Продиагностирован по 55 параметрам"
                ],
                "marketPrice": "74 990",
                "minSave": "5 000",
                "price": "67 990",
                "bonus": 2236
            },
            {
                "id": 30,
                "image": 11,
                "title": "Кабель для зарядки Apple с магнитным креплением 1м White (MX2E2ZM/A)",
                "rating": 0,
                "reviews": "Без оценки",
                "stickers": [
                    {
                        "label": "Выгодно",
                        "class": "bargain"
                    }
                ],
                "price": "1 090",
                "bonus": 15
            },
            {
                "id": 31,
                "image": 12,
                "title": "Стекло защитное Code Apple iPhone 12 mini черная рамка 2 шт",
                "rating": 0,
                "reviews": "Без оценки",
                "price": "990",
                "bonus": 15
            }
        ]
    },
    "reviews": [
        {
            "date": "15.02.2021",
            "fullDate": "15 февраля 2021 в 12:21 был оставлен последний отзыв",
            "author": {
                "name": "Анастасия Колесникова",
                "initials": "АК"
            },
            "rating": 5,
            "pros": "В целом, я довольна покупкой! Телефон шёл, кажется, 3 дня. Плюс взяла со cкидкой и сэкономила 2000. Телефон замечательный. Думаю, прослужит немало. Спасибо большое!",
            "cons": "Нет"
        },
        {
            "date": "15.02.2021",
            "fullDate": "15 февраля 2021 в 12:21 был оставлен последний отзыв",
            "author": {
                "name": "Анастасия Колесникова",
                "initials": "АК"
            },
            "rating": 5,
            "pros": "В целом, я довольна покупкой! Телефон шёл, кажется, 3 дня. Плюс взяла со cкидкой и сэкономила 2000. Телефон замечательный. Думаю, прослужит немало. Спасибо большое!",
            "cons": "Нет"
        },
        {
            "date": "15.02.2021",
            "fullDate": "15 февраля 2021 в 12:21 был оставлен последний отзыв",
            "author": {
                "name": "Анастасия Колесникова",
                "initials": "АК"
            },
            "rating": 5,
            "pros": "В целом, я довольна покупкой! Телефон шёл, кажется, 3 дня. Плюс взяла со cкидкой и сэкономила 2000. Телефон замечательный. Думаю, прослужит немало. Спасибо большое!",
            "cons": "Нет"
        }
    ],
    "product": {
        "utilityMenu": [
            {
                "icon": "controls",
                "name": "Сравнить",
                "tippyOn": "Удалить из списка сравнения",
                "tippyOff": "Добавить в список сравнения"
            },
            {
                "icon": "fav",
                "name": "В избранное",
                "tippyOn": "Удалить из избранного",
                "tippyOff": "Добавить в избранное"
            },
            {
                "icon": "share",
                "name": "Поделиться",
                "element": "modal-trigger",
                "src": "#modal-share"
            }
        ],
        "stickers": [
            {
                "label": "Бестселлер",
                "class": "bestseller"
            },
            {
                "label": "Выгодно",
                "class": "bargain"
            }
        ],
        "tags": [
            "Оригинальный гаджет",
            "Продиагностирован по 55 параметрам",
            "Гарантия <b>180 дней</b>",
            "Рассрочка",
            "Трейд-ин"
        ],
        "condition": [
            {
                "id": "like-new",
                "name": "Как новый",
                "price": "180 550 ₽",
                "text": "Смартфоном пользовались аккуратно и недолго. <br>Он в полной рабостопособности, есть минимальные дефекты на корпусе."
            },
            {
                "id": "excellent",
                "name": "Отличный",
                "price": "120 550 ₽",
                "text": "Смартфоном пользовались аккуратно и недолго. Полностью работоспособен. На корпусе минимальные царапины и потертости."
            },
            {
                "id": "good",
                "name": "Хороший",
                "price": "90 550 ₽",
                "text": "Смартфон активно использовали. Полностью работоспособен. На корпусе есть царапины и потертости, но их легко скрыть чехлом."
            }
        ],
        "width": [
            {
                "id": "1",
                "name": "1 м"
            },
            {
                "id": "1-5",
                "name": "1,5 м"
            },
            {
                "id": "2",
                "name": "12 м"
            }
        ],
        "colors": [
            {
                "id": "black",
                "name": "Черный",
                "code": "#000"
            },
            {
                "id": "navy",
                "name": "Синий",
                "code": "#0B486C"
            },
            {
                "id": "gold",
                "name": "Золотой",
                "code": "#EBC06E"
            },
            {
                "id": "white",
                "name": " Белый",
                "code": "#fff",
                "class": "light"
            }
        ],
        "details": [
            {
                "name": "Диагональ:",
                "data": "4.7 дюйма"
            },
            {
                "name": "Разрешение:",
                "data": "1334x750 px"
            },
            {
                "name": "SIM-карты:",
                "data": "2"
            },
            {
                "name": "Фронтальная камера:",
                "data": "12 Мп"
            },
            {
                "name": "Задняя фотокамера:",
                "data": "7 Мп"
            }
        ],
        "features": [
            {
                "icon": "verified",
                "text": "Гарантия 180 дней <br>Возврат в течение 21 дня"
            },
            {
                "icon": "history",
                "text": "Рассрочка Тинькофф <br><b class=\"text-primary\">от 6 990 ₽/мес</b>"
            },
            {
                "icon": "repeat",
                "text": "Купить в трейд-ин"
            },
            {
                "icon": "eco",
                "text": "Вклад в экологию"
            }
        ],
        "featuresDelivery": [
            {
                "icon": "transport",
                "title": "Доставка",
                "text": "в СПБ, послезавтра (1 марта), бесплатно"
            },
            {
                "icon": "location",
                "title": "Самовывоз",
                "text": "из 35 пунктов самовывоза сегодня, бесплатно"
            }
        ],
        "info": [
            {
                "id": "description",
                "name": "Описание",
                "text": "Увеличенный дисплей Super Retina XDR 6,7 дюйма. Передняя панель Ceramic Shield, с которой риск повреждений дисплея при падении в 4 раза ниже. Потрясающее качество снимков при слабом освещении благодаря лучшей на iPhone системе камер Pro. Оптический зум с диапазоном 5x. Съёмка, монтаж и воспроизведение видео кинематографического качества в стандарте Dolby Vision. Ночной режим для портретов и дополненная реальность нового уровня благодаря сканеру LiDAR."
            },
            {
                "id": "features",
                "name": "Характеристики",
                "sections": [
                    {
                        "title": "Общие характеристики",
                        "details": [
                            {
                                "name": "Тип",
                                "data": "смартфон"
                            },
                            {
                                "name": "Версия ОС на начало продаж",
                                "data": "iOS 13"
                            },
                            {
                                "name": "Тип корпуса",
                                "data": "классический"
                            },
                            {
                                "name": "Материал корпуса",
                                "data": "металл и стекло"
                            },
                            {
                                "name": "Конструкция",
                                "data": "влагозащита"
                            },
                            {
                                "name": "Степень защиты",
                                "data": "IP68"
                            },
                            {
                                "name": "Количество SIM-карт",
                                "data": "2"
                            },
                            {
                                "name": "Тип SIM-карты",
                                "data": "nano SIM+eSIM"
                            },
                            {
                                "name": "Бесконтактная оплата",
                                "data": "есть"
                            },
                            {
                                "name": "Вес",
                                "data": "194 г"
                            },
                            {
                                "name": "Размеры (ШxВxТ)",
                                "data": "75.7x150.9x8.3 мм"
                            }
                        ]
                    },
                    {
                        "title": "Экран",
                        "details": [
                            {
                                "name": "Экран",
                                "data": "смартфон"
                            },
                            {
                                "name": "Версия ОС на начало продаж",
                                "data": "iOS 13"
                            },
                            {
                                "name": "Тип корпуса",
                                "data": "классический"
                            },
                            {
                                "name": "Материал корпуса",
                                "data": "металл и стекло"
                            },
                            {
                                "name": "Конструкция",
                                "data": "влагозащита"
                            },
                            {
                                "name": "Степень защиты",
                                "data": "IP68"
                            },
                            {
                                "name": "Количество SIM-карт",
                                "data": "2"
                            },
                            {
                                "name": "Тип SIM-карты",
                                "data": "nano SIM+eSIM"
                            },
                            {
                                "name": "Бесконтактная оплата",
                                "data": "есть"
                            },
                            {
                                "name": "Вес",
                                "data": "194 г"
                            },
                            {
                                "name": "Размеры (ШxВxТ)",
                                "data": "75.7x150.9x8.3 мм"
                            }
                        ]
                    },
                    {
                        "title": "Мультимедийные возможности",
                        "details": [
                            {
                                "name": "Количество основных (тыловых) камер",
                                "data": "2"
                            },
                            {
                                "name": "Основные (тыловые) камеры",
                                "data": "сверхширокоугольная 12 МП 2x F/2.40, широкоугольная 12 МП F/1.80"
                            },
                            {
                                "name": "Функции основной (тыловой) фотокамеры",
                                "data": "автофокус, оптическая стабилизация, режим макросъемки, оптический Zoom 2x"
                            },
                            {
                                "name": "Фотовспышка",
                                "data": "тыльная, светодиодная"
                            },
                            {
                                "name": "Запись видеороликов",
                                "data": "есть (HEVC, H.264)"
                            },
                            {
                                "name": "Макс. разрешение видео",
                                "data": "3840x2160"
                            },
                            {
                                "name": "Фронтальная камера",
                                "data": "есть, 12 МП"
                            },
                            {
                                "name": "Аудио",
                                "data": "MP3, AAC, WAV, WMA, стереодинамики"
                            },
                            {
                                "name": "Разъем для наушников",
                                "data": "Lightning"
                            }
                        ]
                    },
                    {
                        "title": "Связь",
                        "details": [
                            {
                                "name": "Стандарт",
                                "data": "GSM 900/1800/1900, 3G, 4G LTE, LTE-A, VoLTE"
                            },
                            {
                                "name": "Поддержка диапазонов LTE",
                                "data": "модель A2221: FDD‑LTE (диапазоны 1, 2, 3, 4, 5, 7, 8, 11, 12, 13, 17, 18, 19, 20, 21, 25, 26, 28, 29, 30, 32, 66) TD‑LTE (диапазоны 34, 38, 39, 40, 41, 42, 46, 48)"
                            },
                            {
                                "name": "Интерфейсы",
                                "data": "Wi-Fi 802.11ax, Bluetooth 5.0, NFC"
                            },
                            {
                                "name": "Геопозиционирование",
                                "data": "A-GPS, ГЛОНАСС, GPS"
                            }
                        ]
                    },
                    {
                        "title": "Память и процессор",
                        "details": [
                            {
                                "name": "Процессор",
                                "data": "Apple A13 Bionic"
                            },
                            {
                                "name": "Количество ядер процессора",
                                "data": "6"
                            },
                            {
                                "name": "Объем встроенной памяти",
                                "data": "64 ГБ"
                            },
                            {
                                "name": "Объем оперативной памяти",
                                "data": "4 ГБ"
                            }
                        ]
                    },
                    {
                        "title": "Питание",
                        "details": [
                            {
                                "name": "Тип аккумулятора",
                                "data": "Li-Ion"
                            },
                            {
                                "name": "Емкость аккумулятора",
                                "data": "3110 мА⋅ч"
                            },
                            {
                                "name": "Аккумулятор",
                                "data": "несъемный"
                            },
                            {
                                "name": "Время работы в режиме прослушивания музыки",
                                "data": "65 ч"
                            },
                            {
                                "name": "Тип разъема для зарядки",
                                "data": "Lightning"
                            },
                            {
                                "name": "Функция беспроводной зарядки",
                                "data": "есть"
                            },
                            {
                                "name": "Функция быстрой зарядки",
                                "data": "есть"
                            }
                        ]
                    },
                    {
                        "title": "Другие функции",
                        "details": [
                            {
                                "name": "Фонарик",
                                "data": "есть"
                            }
                        ]
                    },
                    {
                        "title": "Дополнительная информация",
                        "details": [
                            {
                                "name": "Дата анонсирования",
                                "data": "2019-09-10"
                            },
                            {
                                "name": "Дата выхода",
                                "data": "2019-09-20"
                            }
                        ]
                    }
                ]
            },
            {
                "id": "delivery",
                "name": "Доставка и самовывоз",
                "list": [
                    {
                        "title": "Курьером СДЭК",
                        "image": "cdek.png",
                        "info": "Срок: 3 марта <br>Цена: бесплатно"
                    },
                    {
                        "title": "Курьером КСЕ",
                        "image": "kce.png",
                        "info": "Срок: 7 марта <br>Цена: 150 ₽"
                    },
                    {
                        "title": "Самовывоз из&nbsp;пункта выдачи",
                        "icon": "shop",
                        "info": "Срок: 2 марта <br>Цена: бесплатно"
                    }
                ]
            },
            {
                "id": "payment",
                "name": "Оплата и рассрочка",
                "list": [
                    {
                        "title": "Рассрочка от Тинькофф",
                        "image": "tinkoff.svg",
                        "info": "На 10 месяцев без&nbsp;первого взноса"
                    },
                    {
                        "title": "Оплата при получении",
                        "image": "cloud-payments.png",
                        "info": "Наличными <br>или картой"
                    },
                    {
                        "title": "Картой онлайн",
                        "icon": "wallet-2",
                        "info": "Visa, MasterCard, <br>МИР"
                    }
                ]
            },
            {
                "id": "guarantee",
                "name": "Гарантия и сервис"
            }
        ],
        "questions": [
            {
                "author": {
                    "name": "Григорий Золотарев",
                    "initials": "ГЗ"
                },
                "date": "17.02.2021 17:32",
                "text": "Подскажите, в каком точно состоянии будет мой телефон при получении?",
                "answers": [
                    {
                        "author": {
                            "name": "Команда Smart Bazar",
                            "icon": "logo"
                        },
                        "date": "17.02.2021 18:32",
                        "text": "Состояние телефона максимально близко описано в нашей мини-инструкции. Но, в любом случае, вы сможете внимательно осмотреть модель перед оплатой. Далее у вас будет 21 день на досканальную проверку и возможность отказаться без объяснения причин. Гарантия на устройство составляет до 180 дней."
                    }
                ]
            }
        ],
        "serviceSlider": [
            {
                "icon": "chat-shadow",
                "text": "Нажмите на кнопку выше, заполните контактные данные и&nbsp;отправьте форму — отлично, вы попали в базу подписчиков."
            },
            {
                "icon": "chat-shadow",
                "text": "Нажмите на кнопку выше, заполните контактные данные и&nbsp;отправьте форму — отлично, вы попали в базу подписчиков."
            },
            {
                "icon": "chat-shadow",
                "text": "Нажмите на кнопку выше, заполните контактные данные и&nbsp;отправьте форму — отлично, вы попали в базу подписчиков."
            }
        ],
        "variants": [
            {
                "title": "Хороший",
                "list": [
                    {
                        "option": "128 GB",
                        "names": ["Черный"],
                        "price": "62 990 ₽"
                    },
                    {
                        "option": "256 GB",
                        "names": ["Белый"],
                        "price": "62 990 ₽"
                    }
                ]
            },
            {
                "title": "Отличный",
                "list": [
                    {
                        "option": "128 GB",
                        "names": ["Черный"],
                        "price": "62 990 ₽"
                    },
                    {
                        "option": "512 GB",
                        "names": ["Серебристый"],
                        "price": "68 990 ₽"
                    }
                ]
            },
            {
                "title": "Как новый",
                "list": [
                    {
                        "option": "128 GB",
                        "names": ["Серебристый", "Белый"],
                        "price": "66 990 ₽"
                    },
                    {
                        "option": "256 GB",
                        "names": ["Черный"],
                        "price": "68 990 ₽"
                    },
                    {
                        "option": "512 GB",
                        "names": ["Черный", "Белый"],
                        "price": "70 990 ₽"
                    }
                ]
            }
        ]
    },
    "pickUp": [
        {
            "name": "Почтомат 5post в Пятерочке ОМ100836",
            "address": "199178, Москва, Малый пр., д.52/1",
            "businessHours": "пн-вс: 09:00 – 23:00",
            "restrictions": "Только выдача предварительно оплаченных заказов. Проверка заказа недоступна."
        },
        {
            "name": "Почтомат 5post в Пятерочке L817",
            "address": "156170, Москва, Кузнецовская ул., д.10",
            "businessHours": "пн-вс: 08:00 - 22:00",
            "restrictions": "Только выдача предварительно оплаченных заказов. Проверка заказа недоступна."
        },
        {
            "name": "ПВЗ Lamoda 10173 СПб Ленсовета",
            "address": "167378, Москва, ул. Ленсовета, д.90/2",
            "businessHours": "пн-вс: 10:00 - 21:00",
            "restrictions": "Только выдача предварительно оплаченных заказов. Проверка заказа недоступна."
        },
        {
            "name": "ПВЗ Lamoda 10221 СПб",
            "address": "159108, Москва, ул. Бабушкина, д.82/1",
            "businessHours": "пн-вс: 08:00 - 22:00",
            "restrictions": "Только выдача предварительно оплаченных заказов. Проверка заказа недоступна."
        },
        {
            "name": "Почтомат 5post в Пятерочке ОМ100836",
            "address": "199178, Москва, Малый пр., д.52/1",
            "businessHours": "пн-вс: 09:00 – 23:00",
            "restrictions": "Только выдача предварительно оплаченных заказов. Проверка заказа недоступна."
        },
        {
            "name": "Почтомат 5post в Пятерочке L817",
            "address": "156170, Москва, Кузнецовская ул., д.10",
            "businessHours": "пн-вс: 08:00 - 22:00",
            "restrictions": "Только выдача предварительно оплаченных заказов. Проверка заказа недоступна."
        },
        {
            "name": "ПВЗ Lamoda 10173 СПб Ленсовета",
            "address": "167378, Москва, ул. Ленсовета, д.90/2",
            "businessHours": "пн-вс: 10:00 - 21:00",
            "restrictions": "Только выдача предварительно оплаченных заказов. Проверка заказа недоступна."
        },
        {
            "name": "ПВЗ Lamoda 10221 СПб",
            "address": "159108, Москва, ул. Бабушкина, д.82/1",
            "businessHours": "пн-вс: 08:00 - 22:00",
            "restrictions": "Только выдача предварительно оплаченных заказов. Проверка заказа недоступна."
        }
    ],
    "support": {
        "menu": [
            {
                "icon": "phone-help-shadow",
                "iconSize": "79%",
                "title": "Помогите выбрать"
            },
            {
                "icon": "delivery-shadow",
                "iconSize": "89%",
                "title": "Не понимаю, как получить&nbsp;/ оплатить"
            },
            {
                "icon": "problems-shadow",
                "iconSize": "72%",
                "title": "Оформил заказ, есть проблема"
            },
            {
                "icon": "phone-return-shadow",
                "iconSize": "79%",
                "title": "Не понимаю, как обменять&nbsp;/ вернуть товар"
            }
        ],
        "faq": [
            {
                "question": "Как именно будет выглядеть устройство, которое я хочу купить?",
                "answer": "<p>Все устройства, полученные нами, делятся на 3 состояния: хорошее, отличное и аналогичное новому.  Все они попадают к нам через сервис трейд-ин, в рамках которого проходят проверку по 55 параметрам в сертифицированном сервисном центре. Далее устройства упаковываются в фирменную коробку и получают гарантию 100 или 180 дней.</p><p>К сожалению, у нас нет возможности сфотографировать каждое устройство до того, как оно будет упаковано и передано в продажу. Однако вы можете посмотреть фото устройств в различных состояниях, которые максимально реалистично демонстрируют внешний вид устройства. Фотографии размещены на странице каждого товара.</p>"
            },
            {
                "question": "У вас все товары - Ростест?",
                "answer": "<p>Все устройства, полученные нами, делятся на 3 состояния: хорошее, отличное и аналогичное новому.  Все они попадают к нам через сервис трейд-ин, в рамках которого проходят проверку по 55 параметрам в сертифицированном сервисном центре. Далее устройства упаковываются в фирменную коробку и получают гарантию 100 или 180 дней.</p><p>К сожалению, у нас нет возможности сфотографировать каждое устройство до того, как оно будет упаковано и передано в продажу. Однако вы можете посмотреть фото устройств в различных состояниях, которые максимально реалистично демонстрируют внешний вид устройства. Фотографии размещены на странице каждого товара.</p>"
            },
            {
                "question": "Могу ли я узнать, как и кто именно пользовались устройством ранее?",
                "answer": "<p>Все устройства, полученные нами, делятся на 3 состояния: хорошее, отличное и аналогичное новому.  Все они попадают к нам через сервис трейд-ин, в рамках которого проходят проверку по 55 параметрам в сертифицированном сервисном центре. Далее устройства упаковываются в фирменную коробку и получают гарантию 100 или 180 дней.</p><p>К сожалению, у нас нет возможности сфотографировать каждое устройство до того, как оно будет упаковано и передано в продажу. Однако вы можете посмотреть фото устройств в различных состояниях, которые максимально реалистично демонстрируют внешний вид устройства. Фотографии размещены на странице каждого товара.</p>"
            },
            {
                "question": "У меня другой вопрос",
                "answer": "<p>Все устройства, полученные нами, делятся на 3 состояния: хорошее, отличное и аналогичное новому.  Все они попадают к нам через сервис трейд-ин, в рамках которого проходят проверку по 55 параметрам в сертифицированном сервисном центре. Далее устройства упаковываются в фирменную коробку и получают гарантию 100 или 180 дней.</p><p>К сожалению, у нас нет возможности сфотографировать каждое устройство до того, как оно будет упаковано и передано в продажу. Однако вы можете посмотреть фото устройств в различных состояниях, которые максимально реалистично демонстрируют внешний вид устройства. Фотографии размещены на странице каждого товара.</p>"
            }
        ],
        "contacts": [
            {
                "icon": "whatsapp-outline",
                "iconColor": "whatsapp",
                "iconSize": "61%",
                "title": "Написать <br>в&nbsp;Whatsapp"
            },
            {
                "icon": "help-desk",
                "iconSize": "78%",
                "title": "Обратиться <br>в&nbsp;службу поддержки",
                "element": "modal-trigger",
                "link": "#modal-support-form"
            },
            {
                "icon": "video-help-shadow",
                "iconSize": "83%",
                "title": "Получить видеоконсультацию",
                "info": "10:00—22:00 МСК",
                "element": "modal-trigger",
                "link": "#modal-video-chat"
            },
            {
                "icon": "viber-2",
                "iconSize": "61%",
                "title": "Позвоните <br>8-800-550-14-44",
                "info": "круглосуточно",
                "link": "tel:+78005501444"
            }
        ]
    },
    "comparison": {
        "main": [
            {
                "table": [
                    {
                        "th": "Состояние",
                        "td": [
                            "Как новый",
                            "Хороший",
                            "Отличный",
                            "Как новый"
                        ]
                    },
                    {
                        "th": "Цена нового на Я.Маркете",
                        "td": [
                            "от 115 990 ₽",
                            "от 115 990 ₽",
                            "от 115 990 ₽",
                            "от 115 990 ₽"
                        ]
                    },
                    {
                        "th": "Стоимость",
                        "td": [
                            "<b>60 550 ₽ <br><span class=\"text-primary\">выгода до 15 000 ₽</span></b>",
                            "<b>78 550 ₽ <br><span class=\"text-primary\">выгода до 35 000 ₽</span></b>",
                            "<b>99 999 ₽ <br><span class=\"text-primary\">выгода до 35 000 ₽</span></b>",
                            "<b>60 550 ₽ <br><span class=\"text-primary\">выгода до 35 000 ₽</span></b>"
                        ]
                    },
                    {
                        "th": "Гарантия",
                        "td": [
                            "180 дней",
                            "100 дней",
                            "180 дней",
                            "180 дней"
                        ]
                    }
                ]
            }
        ],
        "body": [
            {
                "title": "Общие характеристики",
                "table": [
                    {
                        "th": "Тип",
                        "td": "смартфон"
                    },
                    {
                        "th": "Версия ОС на начало продаж",
                        "td": "iOS 13"
                    },
                    {
                        "th": "Тип корпуса",
                        "td": "классический"
                    },
                    {
                        "th": "Материал корпуса",
                        "td": "металл и стекло"
                    },
                    {
                        "th": "Конструкция",
                        "td": "влагозащита"
                    },
                    {
                        "th": "Степень защиты",
                        "td": "IP68"
                    },
                    {
                        "th": "Количество SIM-карт",
                        "td": "2"
                    },
                    {
                        "th": "Тип SIM-карты",
                        "td": "nano SIM+eSIM"
                    },
                    {
                        "th": "Бесконтактная оплата",
                        "td": "есть"
                    },
                    {
                        "th": "Вес",
                        "td": "194 г"
                    },
                    {
                        "th": "Размеры (ШxВxТ)",
                        "td": "75.7x150.9x8.3 мм"
                    }
                ]
            },
            {
                "title": "Экран",
                "table": [
                    {
                        "th": "Тип",
                        "td": "смартфон"
                    },
                    {
                        "th": "Версия ОС на начало продаж",
                        "td": "iOS 13"
                    },
                    {
                        "th": "Тип корпуса",
                        "td": "классический"
                    },
                    {
                        "th": "Материал корпуса",
                        "td": "металл и стекло"
                    },
                    {
                        "th": "Конструкция",
                        "td": "влагозащита"
                    },
                    {
                        "th": "Степень защиты",
                        "td": "IP68"
                    },
                    {
                        "th": "Количество SIM-карт",
                        "td": "2"
                    },
                    {
                        "th": "Тип SIM-карты",
                        "td": "nano SIM+eSIM"
                    },
                    {
                        "th": "Бесконтактная оплата",
                        "td": "есть"
                    },
                    {
                        "th": "Вес",
                        "td": "194 г"
                    },
                    {
                        "th": "Размеры (ШxВxТ)",
                        "td": "75.7x150.9x8.3 мм"
                    }
                ]
            },
            {
                "title": "Мультимедийные возможности",
                "table": [
                    {
                        "th": "Количество основных (тыловых) камер",
                        "td": "2",
                        "align": "middle"
                    },
                    {
                        "th": "Основные (тыловые) камеры",
                        "td": "сверхширокоугольная 12 МП 2x F/2.40, широкоугольная 12 МП F/1.80"
                    },
                    {
                        "th": "Функции основной (тыловой) фотокамеры",
                        "td": "автофокус, оптическая стабилизация, режим макросъемки, оптический Zoom 2x"
                    },
                    {
                        "th": "Фотовспышка",
                        "td": "тыльная, светодиодная"
                    },
                    {
                        "th": "Запись видеороликов",
                        "td": "есть (HEVC, H.264)"
                    },
                    {
                        "th": "Макс. разрешение видео",
                        "td": "3840x2160"
                    },
                    {
                        "th": "Фронтальная камера",
                        "td": "есть, 12 МП"
                    },
                    {
                        "th": "Аудио",
                        "td": "MP3, AAC, WAV, WMA, стереодинамики"
                    },
                    {
                        "th": "Разъем для наушников",
                        "td": "Lightning"
                    }
                ]
            },
            {
                "title": "Связь",
                "table": [
                    {
                        "th": "Стандарт",
                        "td": "GSM 900/1800/1900, 3G, 4G LTE, LTE-A, VoLTE"
                    },
                    {
                        "th": "Поддержка диапазонов LTE",
                        "td": "модель A2221: FDD‑LTE (диапазоны 1, 2, 3, 4, 5, 7, 8, 11, 12, 13, 17, 18, 19, 20, 21, 25, 26, 28, 29, 30, 32, 66) TD‑LTE (диапазоны 34, 38, 39, 40, 41, 42, 46, 48)"
                    },
                    {
                        "th": "Интерфейсы",
                        "td": "Wi-Fi 802.11ax, Bluetooth 5.0, NFC"
                    },
                    {
                        "th": "Геопозиционирование",
                        "td": "A-GPS, ГЛОНАСС, GPS"
                    }
                ]
            },
            {
                "title": "Память и процессор",
                "table": [
                    {
                        "th": "Процессор",
                        "td": "Apple A13 Bionic"
                    },
                    {
                        "th": "Количество ядер процессора",
                        "td": "6",
                        "align": "middle"

                    },
                    {
                        "th": "Объем встроенной памяти",
                        "td": "64 ГБ"
                    },
                    {
                        "th": "Объем оперативной памяти",
                        "td": "4 ГБ"
                    }
                ]
            },
            {
                "title": "Питание",
                "table": [
                    {
                        "th": "Тип аккумулятора",
                        "td": "Li-Ion"
                    },
                    {
                        "th": "Емкость аккумулятора",
                        "td": "3110 мА⋅ч"
                    },
                    {
                        "th": "Аккумулятор",
                        "td": "несъемный"
                    },
                    {
                        "th": "Время работы в режиме прослушивания музыки",
                        "td": "65 ч"
                    },
                    {
                        "th": "Тип разъема для зарядки",
                        "td": "Lightning"
                    },
                    {
                        "th": "Функция беспроводной зарядки",
                        "td": "есть"
                    },
                    {
                        "th": "Функция быстрой зарядки",
                        "td": "есть"
                    }
                ]
            },
            {
                "title": "Другие функции",
                "table": [
                    {
                        "th": "Фонарик",
                        "td": "есть"
                    }
                ]
            },
            {
                "title": "Дополнительная информация",
                "table": [
                    {
                        "th": "Дата анонсирования",
                        "td": "2019-09-10"
                    },
                    {
                        "th": "Дата выхода",
                        "td": "2019-09-20"
                    }
                ]
            }
        ]
    }
}